Accessing diagnostic estimate data — estimates • triptych
…
For a ROC curve, a tibble with columns: forecast, FAR (false alarm rate), HR (hit rate).

For a MCBDSC decomposition, a tibble with columns: forecast, mean_score, MCB (miscalibration), DSC (discrimination), UNC (uncertainty).

    See also

    regions(), forecasts(), observations()

    Examples

data(ex_binary, package = "triptych")
tr <- triptych(ex_binary)

estimates(tr$murphy)
#> # A tibble: 20,018 × 4
#>    forecast     knot limit mean_score
#>    <chr>       <dbl> <chr>      <dbl>
#>  1 X01      0        left    0       
#>  2 X01      0        right   0       
#>  3 X01      1.19e-23 left    1.24e-23
#>  4 X01      1.19e-23 right   1.24e-23
#>  5 X01      3.84e-23 left    4.00e-23
#>  6 X01      3.84e-23 right   3.99e-23
#>  7 X01      9.45e-22 left    9.83e-22
#>  8 X01      9.45e-22 right   9.81e-22
#>  9 X01      9.82e-20 left    1.02e-19
#> 10 X01      9.82e-20 right   1.02e-19
#> # ℹ 20,008 more rows
estimates(tr$reliability)
#> # A tibble: 374 × 3
#>    forecast   CEP        x
#>    <chr>    <dbl>    <dbl>
#>  1 X01      0     1.19e-23
#>  2 X01      0     5.70e- 2
#>  3 X01      0.1   5.77e- 2
#>  4 X01      0.1   1.24e- 1
#>  5 X01      0.167 1.25e- 1
#>  6 X01      0.167 1.54e- 1
#>  7 X01      0.3   1.56e- 1
#>  8 X01      0.3   1.84e- 1
#>  9 X01      0.321 1.87e- 1
#> 10 X01      0.321 3.06e- 1
#> # ℹ 364 more rows
estimates(tr$roc)
#> # A tibble: 197 × 3
#>    forecast    FAR    HR
#>    <chr>     <dbl> <dbl>
#>  1 X01      1      1    
#>  2 X01      0.395  1    
#>  3 X01      0.308  0.990
#>  4 X01      0.280  0.983
#>  5 X01      0.266  0.977
#>  6 X01      0.197  0.941
#>  7 X01      0.176  0.929
#>  8 X01      0.148  0.906
#>  9 X01      0.140  0.900
#> 10 X01      0.0766 0.843
#> # ℹ 187 more rows
…
