Accessing confidence/consistency region data — regions • triptych
…
    estimates(), forecasts(), observations()

    Examples

data(ex_binary, package = "triptych")

# Bootstrap resampling is expensive
# (the number of bootstrap samples is small to keep execution times short)

tr <- triptych(ex_binary) |>
  dplyr::slice(1, 9) |>
  add_confidence(level = 0.9, method = "resampling_cases", n_boot = 20)

regions(tr$murphy)
#> # A tibble: 2,000 × 6
#>    forecast threshold    lower    upper method              level
#>    <chr>        <dbl>    <dbl>    <dbl> <chr>               <dbl>
#>  1 X01        0       0        0        resampling_cases_20   0.9
#>  2 X01        0.00100 0.000649 0.000765 resampling_cases_20   0.9
#>  3 X01        0.00200 0.00121  0.00145  resampling_cases_20   0.9
#>  4 X01        0.00300 0.00178  0.00211  resampling_cases_20   0.9
#>  5 X01        0.00400 0.00232  0.00273  resampling_cases_20   0.9
#>  6 X01        0.00501 0.00284  0.00335  resampling_cases_20   0.9
#>  7 X01        0.00601 0.00336  0.00392  resampling_cases_20   0.9
#>  8 X01        0.00701 0.00381  0.00446  resampling_cases_20   0.9
#>  9 X01        0.00801 0.00429  0.00498  resampling_cases_20   0.9
#> 10 X01        0.00901 0.00477  0.00559  resampling_cases_20   0.9
#> # ℹ 1,990 more rows
regions(tr$reliability)
#> # A tibble: 1,998 × 6
#>    forecast        x lower upper method              level
#>    <chr>       <dbl> <dbl> <dbl> <chr>               <dbl>
#>  1 X01      1.19e-23     0     0 resampling_cases_20   0.9
#>  2 X01      3.84e-23     0     0 resampling_cases_20   0.9
#>  3 X01      9.45e-22     0     0 resampling_cases_20   0.9
#>  4 X01      9.82e-20     0     0 resampling_cases_20   0.9
#>  5 X01      1.13e-19     0     0 resampling_cases_20   0.9
#>  6 X01      4.73e-17     0     0 resampling_cases_20   0.9
#>  7 X01      1.40e-16     0     0 resampling_cases_20   0.9
#>  8 X01      6.33e-16     0     0 resampling_cases_20   0.9
#>  9 X01      1.48e-15     0     0 resampling_cases_20   0.9
#> 10 X01      7.97e-15     0     0 resampling_cases_20   0.9
#> # ℹ 1,988 more rows
regions(tr$roc)
#> # A tibble: 4,004 × 5
#>    forecast   FAR      HR method              level
#>    <chr>    <dbl>   <dbl> <chr>               <dbl>
#>  1 X01          0 0       resampling_cases_20   0.9
#>  2 X01          0 0.00209 resampling_cases_20   0.9
#>  3 X01          0 0.00418 resampling_cases_20   0.9
#>  4 X01          0 0.00628 resampling_cases_20   0.9
#>  5 X01          0 0.00837 resampling_cases_20   0.9
#>  6 X01          0 0.0105  resampling_cases_20   0.9
#>  7 X01          0 0.0126  resampling_cases_20   0.9
#>  8 X01          0 0.0146  resampling_cases_20   0.9
#>  9 X01          0 0.0167  resampling_cases_20   0.9
#> 10 X01          0 0.0188  resampling_cases_20   0.9
#> # ℹ 3,994 more rows
…
